{
  "rabbit_version": "3.8.2",
  "rabbitmq_version": "3.8.2",
  "users": [
    {
      "name": "guitou",
      "password_hash": "eAQNKNf1E6xhPOubvSUvN3AcoOxXhf2qFcS2CbAQX9lQ7csd",
      "hashing_algorithm": "rabbit_password_hashing_sha256",
      "tags": "administrator"
    },
    {
      "name": "guest",
      "password_hash": "ZZ4VmYFWuL4zblJfSBD17V0QxS3q5t2u9Vmq37PCw0jWJRzl",
      "hashing_algorithm": "rabbit_password_hashing_sha256",
      "tags": "administrator"
    }
  ],
  "vhosts": [
    {
      "name": "guitou"
    },
    {
      "name": "/"
    }
  ],
  "permissions": [
    {
      "user": "guest",
      "vhost": "guitou",
      "configure": ".*",
      "write": ".*",
      "read": ".*"
    },
    {
      "user": "guest",
      "vhost": "/",
      "configure": ".*",
      "write": ".*",
      "read": ".*"
    },
    {
      "user": "guitou",
      "vhost": "guitou",
      "configure": ".*",
      "write": ".*",
      "read": ".*"
    }
  ],
  "topic_permissions": [],
  "parameters": [],
  "global_parameters": [
    {
      "name": "cluster_name",
      "value": "rabbit@mfhouse"
    }
  ],
  "policies": [],
  "queues": [
    {
      "name": "guitou.data.add",
      "vhost": "guitou",
      "durable": true,
      "auto_delete": false,
      "arguments": {}
    },
    {
      "name": "guitou.data.update",
      "vhost": "guitou",
      "durable": true,
      "auto_delete": false,
      "arguments": {}
    },
    {
      "name": "guitou.data",
      "vhost": "guitou",
      "durable": true,
      "auto_delete": false,
      "arguments": {}
    },
    {
      "name": "guitou.project.user.invitated",
      "vhost": "guitou",
      "durable": true,
      "auto_delete": false,
      "arguments": {}
    },
    {
      "name": "guitou.data.update",
      "vhost": "/",
      "durable": true,
      "auto_delete": false,
      "arguments": {}
    },
    {
      "name": "guitou.data",
      "vhost": "/",
      "durable": true,
      "auto_delete": false,
      "arguments": {}
    },
    {
      "name": "guitou.data.add",
      "vhost": "/",
      "durable": true,
      "auto_delete": false,
      "arguments": {}
    }
  ],
  "exchanges": [],
  "bindings": []
}
